%YAML 1.1
%TAG !u! tag:unity3d.com,2011:
--- !u!114 &11400000
MonoBehaviour:
  m_ObjectHideFlags: 0
  m_CorrespondingSourceObject: {fileID: 0}
  m_PrefabInstance: {fileID: 0}
  m_PrefabAsset: {fileID: 0}
  m_GameObject: {fileID: 0}
  m_Enabled: 1
  m_EditorHideFlags: 0
  m_Script: {fileID: 11500000, guid: 95e66c6366d904e98bc83428217d4fd7, type: 3}
  m_Name: GraphCapScale
  m_EditorClassIdentifier: 
  _data:
    _json: '{"graph":{"variables":{"Kind":"Flow","collection":{"$content":[],"$version":"A"},"$version":"A"},"controlInputDefinitions":[],"controlOutputDefinitions":[],"valueInputDefinitions":[],"valueOutputDefinitions":[],"title":"GraphCapScale","summary":null,"pan":{"x":178.1898,"y":142.649},"zoom":0.6999999,"elements":[{"coroutine":false,"defaultValues":{},"position":{"x":-208.0,"y":-176.0},"guid":"891fd812-1295-4470-9092-3d964a2f3ba1","$version":"A","$type":"Unity.VisualScripting.Update","$id":"9"},{"chainable":false,"member":{"name":"ClampMagnitude","parameterTypes":["UnityEngine.Vector3","System.Single"],"targetType":"UnityEngine.Vector3","targetTypeName":"UnityEngine.Vector3","$version":"A"},"defaultValues":{"%vector":{"x":0.0,"y":0.0,"z":0.0,"$type":"UnityEngine.Vector3"},"%maxLength":{"$content":1.0,"$type":"System.Single"}},"position":{"x":68.0,"y":-158.0},"guid":"12943aea-282e-42df-a776-ef7cb4c46d17","$version":"A","$type":"Unity.VisualScripting.InvokeMember","$id":"11"},{"defaultValues":{},"position":{"x":206.0,"y":259.0},"guid":"acb78914-914c-47e3-9e6f-f877317d9c5a","$version":"A","$type":"Unity.VisualScripting.GenericMultiply","$id":"14"},{"defaultValues":{},"position":{"x":322.0,"y":95.0},"guid":"e53153a3-ba19-4b4b-be4e-366062d9490f","$version":"A","$type":"Unity.VisualScripting.GenericMultiply","$id":"16"},{"specifyFallback":false,"kind":"Object","defaultValues":{"name":{"$content":"scaleUnits","$type":"System.String"},"object":null},"position":{"x":-90.0,"y":223.0},"guid":"df10fd38-46a2-428c-b144-bd2a29d644db","$version":"A","$type":"Unity.VisualScripting.GetVariable","$id":"18"},{"member":{"name":"deltaTime","parameterTypes":null,"targetType":"UnityEngine.Time","targetTypeName":"UnityEngine.Time","$version":"A"},"defaultValues":{},"position":{"x":-42.0,"y":351.0},"guid":"44aa1b8c-2044-463f-bd1d-fbc8e038e17d","$version":"A","$type":"Unity.VisualScripting.GetMember","$id":"20"},{"type":"System.Single","value":{"$content":1.0,"$type":"System.Single"},"defaultValues":{},"position":{"x":-7.0,"y":46.0},"guid":"f85496e2-11cb-4ca2-aa2d-e0834c9aa8ef","$version":"A","$type":"Unity.VisualScripting.Literal","$id":"23"},{"specifyFallback":false,"kind":"Object","defaultValues":{"name":{"$content":"axes","$type":"System.String"},"object":null},"position":{"x":-198.0,"y":-13.0},"guid":"3d7260ee-21cc-440f-bbf7-63f19d36cff5","$version":"A","$type":"Unity.VisualScripting.GetVariable","$id":"25"},{"chainable":false,"member":{"name":"Translate","parameterTypes":["UnityEngine.Vector3"],"targetType":"UnityEngine.Transform","targetTypeName":"UnityEngine.Transform","$version":"A"},"defaultValues":{"target":null,"%translation":{"x":0.0,"y":0.0,"z":0.0,"$type":"UnityEngine.Vector3"}},"position":{"x":464.0,"y":-57.0},"guid":"95c5ffef-fb9a-43b5-8ab4-f47a7829cd1d","$version":"A","$type":"Unity.VisualScripting.InvokeMember","$id":"27"},{"sourceUnit":{"$ref":"9"},"sourceKey":"trigger","destinationUnit":{"$ref":"11"},"destinationKey":"enter","guid":"def32296-376a-4dc6-97ff-9642c16c5ae1","$type":"Unity.VisualScripting.ControlConnection"},{"sourceUnit":{"$ref":"11"},"sourceKey":"exit","destinationUnit":{"$ref":"27"},"destinationKey":"enter","guid":"a9869498-5b18-49a4-b79e-73430590ac92","$type":"Unity.VisualScripting.ControlConnection"},{"sourceUnit":{"$ref":"18"},"sourceKey":"value","destinationUnit":{"$ref":"14"},"destinationKey":"a","guid":"5ea0c4f4-c14d-4ff5-9439-7e955d3f6474","$type":"Unity.VisualScripting.ValueConnection"},{"sourceUnit":{"$ref":"20"},"sourceKey":"value","destinationUnit":{"$ref":"14"},"destinationKey":"b","guid":"3e7f1278-f278-49c5-a5f2-f293893acdaa","$type":"Unity.VisualScripting.ValueConnection"},{"sourceUnit":{"$ref":"14"},"sourceKey":"product","destinationUnit":{"$ref":"16"},"destinationKey":"b","guid":"5101975b-c56c-4804-a756-481f244ec784","$type":"Unity.VisualScripting.ValueConnection"},{"sourceUnit":{"$ref":"16"},"sourceKey":"product","destinationUnit":{"$ref":"27"},"destinationKey":"%translation","guid":"3462da79-693e-4aa3-b8dd-d43e401bc240","$type":"Unity.VisualScripting.ValueConnection"},{"sourceUnit":{"$ref":"25"},"sourceKey":"value","destinationUnit":{"$ref":"11"},"destinationKey":"%vector","guid":"bebeaac7-a7cb-49fd-8a4b-603d0945641d","$type":"Unity.VisualScripting.ValueConnection"},{"sourceUnit":{"$ref":"23"},"sourceKey":"output","destinationUnit":{"$ref":"11"},"destinationKey":"%maxLength","guid":"3b0de560-a4fc-4c07-bfb4-63c149cb9e7d","$type":"Unity.VisualScripting.ValueConnection"},{"sourceUnit":{"$ref":"11"},"sourceKey":"result","destinationUnit":{"$ref":"16"},"destinationKey":"a","guid":"5ce4f258-8531-4d61-acec-bfa22094dbbe","$type":"Unity.VisualScripting.ValueConnection"}],"$version":"A"}}'
    _objectReferences: []
